<svg>
<defs>
<g id="cho_sang" transform="scale(0.8) translate(0.2 0.2)">
  <path transform="matrix(0.00887989,0,0,0.00880729,0.94473898,0.68231264)"
     d="M -1.7796628,-46.271187 -1.9253193,-3.2076761 -32.478815,27.13983 -75.542326,26.994173 -105.88983,-3.559322 l 0.14565,-43.063511 30.5535,-30.347506 43.063511,0.145656 z"
     style="fill:#000000;fill-opacity:1;fill-rule:nonzero;stroke:#000000;stroke-width:1.00062525;stroke-linecap:butt;stroke-linejoin:miter;stroke-miterlimit:4;stroke-dasharray:none;stroke-opacity:1" />
  <path d="m 0.34811498,0.75563664 c -0.04186,-0.04402 -0.06258,-0.0574 -0.08891,-0.0574 -0.04948,0 -0.09432,-0.03936 -0.09432,-0.0828 0,-0.05979 0.06247,-0.08478 0.12487,-0.04995 0.01558,0.0087 0.04396,0.01309 0.0637,0.0099 0.0213,-0.0035 0.05012,0.0017 0.07173,0.01301 0.0336,0.01752 0.03663,0.01749 0.04342,-3.46e-4 0.01252,-0.0329 -0.01236,-0.05615 -0.06154,-0.0575 -0.05789,-0.0016 -0.0714,-0.01031 -0.0714,-0.0461 0,-0.01583 -0.0056,-0.03935 -0.01248,-0.05228 -0.01039,-0.01958 -0.01969,-0.02233 -0.05573,-0.01652 -0.03292,0.0053 -0.04967,0.0017 -0.07007,-0.01494 -0.01474,-0.01205 -0.02349,-0.02528 -0.01943,-0.02938 0.004,-0.0041 0.05086,-0.01634 0.10401,-0.02719 0.103974,-0.02123 0.1334,-0.03742 0.1334,-0.07339 0,-0.01865 -0.0052,-0.02158 -0.02846,-0.01582 -0.01565,0.0039 -0.04123,0.01026 -0.05683,0.01414 -0.02822,0.007 -0.02814,0.0066 0.01552,-0.07749 0.04308,-0.08299 0.04471,-0.08456 0.08814,-0.08456 0.03591,0 0.04487,0.0044 0.04759,0.0235 0.0019,0.01378 0.01725,0.0288 0.03697,0.03631 0.04193,0.01596 0.05351,0.04381 0.02938,0.07068 -0.02908,0.0324 -0.02266,0.03668 0.04324,0.02887 0.05037,-0.006 0.07128,-0.0026 0.113852,0.01815 0.06353,0.03101 0.06603,0.05271 0.01168,0.10124 -0.03545,0.03166 -0.03885,0.03918 -0.02742,0.06073 0.0076,0.01433 0.0099,0.04152 0.0055,0.06516 -0.0066,0.03548 -0.0031,0.0446 0.02742,0.07277 0.02158,0.01988 0.03497,0.04344 0.03497,0.06155 0,0.0251 -0.005,0.02935 -0.03491,0.02935 -0.01919,0 -0.04537,0.0056 -0.05815,0.01254 -0.02521,0.01361 -0.05657,-0.0031 -0.03317,-0.01767 0.02,-0.01246 0.01421,-0.05049 -0.0097,-0.06336 -0.03175,-0.01714 -0.03488,-0.01539 -0.03515,0.01969 -6.52e-4,0.08227 -0.0841,0.186563 -0.149273,0.186563 -0.02584,0 -0.04693,-0.01368 -0.0885,-0.0574 z m 0.125583,-0.04349 c 0.0066,-0.01802 0.0051,-0.02739 -0.0044,-0.02983 -0.0077,-0.002 -0.03196,-0.0099 -0.05388,-0.01775 -0.06448,-0.02295 -0.07447,-0.02143 -0.0701,0.01071 0.0063,0.04628 0.03523,0.07046 0.07967,0.06657 0.02872,-0.0025 0.04176,-0.01044 0.04877,-0.0297 z m -0.220709,-0.09072 c -0.01058,-0.01067 -0.02244,-0.01618 -0.02635,-0.01224 -0.01121,0.0113 0.0059,0.03165 0.02675,0.03165 0.01738,0 0.01735,-0.0015 -4.02e-4,-0.01941 z m 0.378335,-0.121231 c 5.6e-4,-0.01349 -0.02779,-0.01008 -0.04291,0.0052 -0.0075,0.0076 -0.01367,0.02073 -0.01367,0.02924 0,0.01157 0.0071,0.01026 0.02811,-0.0052 0.01546,-0.01135 0.02827,-0.0245 0.02846,-0.02924 z m -0.08661,-0.01435 c 0.0044,-0.01166 -5.75e-4,-0.01722 -0.0155,-0.01722 -0.01493,0 -0.01994,0.0056 -0.0155,0.01722 0.0036,0.0095 0.01058,0.01722 0.0155,0.01722 0.0049,0 0.0119,-0.0078 0.0155,-0.01722 z m -0.140739,-0.07463 c 0,-0.01276 -0.0076,-0.02296 -0.01708,-0.02296 -0.02059,0 -0.02201,0.0134 -0.0034,0.03215 0.01838,0.01853 0.0205,0.01758 0.0205,-0.0092 z m 0.202086,-0.02602 c 0.04145,-0.0327 -0.0096,-0.06316 -0.08261,-0.04934 -0.03225,0.0061 -0.03977,0.01271 -0.03977,0.03494 0,0.02133 0.007,0.02827 0.03131,0.03126 0.03777,0.0046 0.07183,-0.0017 0.09108,-0.01686 z"
     style="fill:#ffffff;fill-opacity:1;stroke-width:0.01143287" />
</g>
</defs>
</svg>
